<?xml version="1.0" encoding="UTF-8"?>
<svg width="12px" height="30px" viewBox="0 0 12 30" version="1.1" xmlns="http://www.w3.org/2000/svg" xmlns:xlink="http://www.w3.org/1999/xlink">
    <!-- Generator: Sketch 61 (89581) - https://sketch.com -->
    <title>Group 3</title>
    <desc>Created with Sketch.</desc>
    <g id="Page-2" stroke="none" stroke-width="1" fill="none" fill-rule="evenodd">
        <g id="Landing" transform="translate(-372.000000, -403.000000)" fill-rule="nonzero">
            <g id="Group-3" transform="translate(372.000000, 403.000000)">
                <path d="M11.989017,24.741775 L9.17298475,6.37872867 C9.48779632,6.09000283 9.71838511,5.70616242 9.81982044,5.26197795 L10.4169178,2.64819623 C10.7269811,1.29066264 9.69440625,0 8.30452268,0 L3.69541779,0 C2.30523744,0 1.27301874,1.29089998 1.58308202,2.64825557 L2.18012003,5.26203729 C2.28161471,5.70616242 2.5122035,6.09000283 2.82701506,6.37872867 L0.0109828524,24.741775 C-0.0397051338,25.0723323 0.0873115999,25.4052036 0.345381113,25.6179802 L5.39572077,29.7829661 C5.74661933,30.0723446 6.25343984,30.0723446 6.60433841,29.7829661 L11.6546781,25.6179802 C11.9126882,25.4052036 12.039705,25.0723916 11.989017,24.741775 L11.989017,24.741775 Z" id="Path" fill="#AEAEAE"></path>
                <polygon id="Path" fill="#FFFFFF" points="7.53372865 7 8 10.1845651 4 12 4.73213705 7"></polygon>
                <polygon id="Path" fill="#FFFFFF" points="3.65939486 13.9461634 8.42280818 12 9 15.5486268 3 18"></polygon>
                <polygon id="Path" fill="#FFFFFF" points="3.583105 19.8162623 9.48958741 17 10 20.6622851 3 24"></polygon>
                <path d="M4.05185705,2.10147528 C4.16365601,1.96474549 3.86365829,2.00577007 8.73967509,2.00577007 C8.90725803,2.00577007 9.03049097,2.15756666 8.9933594,2.31658627 L8.4124206,4.80243872 C8.38522158,4.91874086 8.28098753,5 8.15879405,5 L4.83618217,5 C4.71404643,5 4.60969689,4.91874086 4.58249786,4.80238229 C3.95842176,2.13149602 3.94236799,2.23583501 4.05185705,2.10147528 L4.05185705,2.10147528 Z" id="Path" fill="#FFFFFF"></path>
                <polygon id="Path" fill="#FFFFFF" points="5.41439586 28 3 25.7824032 8.76499789 23 9 24.7066488"></polygon>
            </g>
        </g>
    </g>
</svg>